{
  "count": 274188,
  "next": "http://127.0.0.1:8000/crimeinstances/?page=2",
  "previous": null,
  "results": [
    {
      "url": "http://127.0.0.1:8000/crimeinstances/1/",
      "crimedate": "2019-09-07",
      "crimetime": "08:53:00",
      "crimecode": "4E",
      "location": "1000 N MOUNT ST",
      "description": "COMMON ASSAULT",
      "inside_outside": "I",
      "weapon": "NA",
      "post": 743,
      "district": "WESTERN",
      "neighborhood": "SANDTOWN-WINCHESTER",
      "longitude": "-76.64448510",
      "latitude": "39.30035681",
      "location1": "",
      "premise": "ROW/TOWNHOUSE-OCC",
      "vri_name1": "",
      "total_incidents": 1
    },
    {
      "url": "http://127.0.0.1:8000/crimeinstances/2/",
      "crimedate": "2019-09-07",
      "crimetime": "16:29:00",
      "crimecode": "4D",
      "location": "300 PARK AVE",
      "description": "AGG. ASSAULT",
      "inside_outside": "O",
      "weapon": "HANDS",
      "post": 111,
      "district": "CENTRAL",
      "neighborhood": "DOWNTOWN",
      "longitude": "-76.61815500",
      "latitude": "39.29297800",
      "location1": "",
      "premise": "STREET",
      "vri_name1": "",
      "total_incidents": 1
    },
    {
      "url": "http://127.0.0.1:8000/crimeinstances/3/",
      "crimedate": "2019-09-07",
      "crimetime": "23:22:33",
      "crimecode": "9S",
      "location": "2900 JEFFERSON ST",
      "description": "SHOOTING",
      "inside_outside": "O",
      "weapon": "FIREARM",
      "post": 224,
      "district": "SOUTHEAST",
      "neighborhood": "MILTON-MONTFORD",
      "longitude": "-76.57607482",
      "latitude": "39.29700864",
      "location1": "",
      "premise": "STREET",
      "vri_name1": "",
      "total_incidents": 1
    },
    {
      "url": "http://127.0.0.1:8000/crimeinstances/4/",
      "crimedate": "2019-09-07",
      "crimetime": "22:59:00",
      "crimecode": "7A",
      "location": "1100 N PATTERSON PARK AVE",
      "description": "AUTO THEFT",
      "inside_outside": "O",
      "weapon": "NA",
      "post": 322,
      "district": "EASTERN",
      "neighborhood": "MIDDLE EAST",
      "longitude": "-76.58548695",
      "latitude": "39.30392814",
      "location1": "",
      "premise": "STREET",
      "vri_name1": "Eastern 2",
      "total_incidents": 1
    },
    {
      "url": "http://127.0.0.1:8000/crimeinstances/5/",
      "crimedate": "2019-09-07",
      "crimetime": "00:15:00",
      "crimecode": "6G",
      "location": "100 ALLENDALE ST",
      "description": "LARCENY",
      "inside_outside": "I",
      "weapon": "NA",
      "post": 843,
      "district": "SOUTHWEST",
      "neighborhood": "ALLENDALE",
      "longitude": "-76.67821600",
      "latitude": "39.29027800",
      "location1": "",
      "premise": "ROW/TOWNHOUSE-OCC",
      "vri_name1": "",
      "total_incidents": 1
    },
    {
      "url": "http://127.0.0.1:8000/crimeinstances/6/",
      "crimedate": "2019-09-07",
      "crimetime": "16:20:00",
      "crimecode": "6D",
      "location": "5200 PARK HEIGHTS AVE",
      "description": "LARCENY FROM AUTO",
      "inside_outside": "O",
      "weapon": "NA",
      "post": 633,
      "district": "NORTHWEST",
      "neighborhood": "PIMLICO GOOD NEIGHBO",
      "longitude": "-76.67611682",
      "latitude": "39.34911502",
      "location1": "",
      "premise": "PARKING LOT-OUTSIDE",
      "vri_name1": "Northwestern",
      "total_incidents": 1
    },
    {
      "url": "http://127.0.0.1:8000/crimeinstances/7/",
      "crimedate": "2019-09-07",
      "crimetime": "21:40:00",
      "crimecode": "6C",
      "location": "6600 REISTERSTOWN RD",
      "description": "LARCENY",
      "inside_outside": "I",
      "weapon": "NA",
      "post": 631,
      "district": "NORTHWEST",
      "neighborhood": "REISTERSTOWN STATION",
      "longitude": "-76.70439455",
      "latitude": "39.35756526",
      "location1": "",
      "premise": "GROCERY/CONFECTION",
      "vri_name1": "",
      "total_incidents": 1
    },
    {
      "url": "http://127.0.0.1:8000/crimeinstances/8/",
      "crimedate": "2019-09-07",
      "crimetime": "01:12:00",
      "crimecode": "6D",
      "location": "800 S ROBINSON ST",
      "description": "LARCENY FROM AUTO",
      "inside_outside": "O",
      "weapon": "NA",
      "post": 232,
      "district": "SOUTHEAST",
      "neighborhood": "CANTON",
      "longitude": "-76.57205922",
      "latitude": "39.28295540",
      "location1": "",
      "premise": "STREET",
      "vri_name1": "",
      "total_incidents": 1
    },
    {
      "url": "http://127.0.0.1:8000/crimeinstances/9/",
      "crimedate": "2019-09-07",
      "crimetime": "22:00:00",
      "crimecode": "7A",
      "location": "400 S EXETER ST",
      "description": "AUTO THEFT",
      "inside_outside": "O",
      "weapon": "NA",
      "post": 211,
      "district": "SOUTHEAST",
      "neighborhood": "LITTLE ITALY",
      "longitude": "-76.60041817",
      "latitude": "39.28560076",
      "location1": "",
      "premise": "STREET",
      "vri_name1": "",
      "total_incidents": 1
    },
    {
      "url": "http://127.0.0.1:8000/crimeinstances/10/",
      "crimedate": "2019-09-07",
      "crimetime": "15:00:00",
      "crimecode": "6D",
      "location": "2500 HUDSON ST",
      "description": "LARCENY FROM AUTO",
      "inside_outside": "O",
      "weapon": "NA",
      "post": 232,
      "district": "SOUTHEAST",
      "neighborhood": "CANTON",
      "longitude": "-76.58075929",
      "latitude": "39.28204416",
      "location1": "",
      "premise": "STREET",
      "vri_name1": "",
      "total_incidents": 1
    }
  ]
}